Do it! 쉽게 배우는 R 텍스트 마이닝
…
---

#### 데이터를 tibble 구조로 바꾸기

##### 문자열 벡터를 tibble 구조로 바꾸기 - `as_tibble()`

```r
library(dplyr)
moon <- as_tibble(moon)
moon
```

```
## # A tibble: 117 x 1
##    value                                                              
##    <chr>                                                              
##  1 "정권교체 하겠습니다"                                              
##  2 "정치교체 하겠습니다"                                              
##  3 "시대교체 하겠습니다"                                              
##  4 ""                                                                 
##  5 "불비불명 이라는 고사가 있습니다 남쪽 언덕 나뭇가지에 앉아 년 동안 날지도 울지도 않는 새 그러나 그 새는 한번 날면~
##  6 ""                                                                 
##  7 "그 동안 정치와 거리를 둬 왔습니다 그러나 암울한 시대가 저를 정치로 불러냈습니다 더 이상 남쪽 나뭇가지에 머무를 수~
##  8 ""                                                                 
##  9 ""                                                                 
## 10 "우리나라 대통령 이 되겠습니다"                                    
## # ... with 107 more rows
```
…
---

##### `moon` 토큰화하기

```r
word_space <- moon %>%
  unnest_tokens(input = value,
                output = word,
                token = "words")

word_space
```

```
## # A tibble: 2,025 x 1
##    word      
##    <chr>     
##  1 정권교체  
##  2 하겠습니다
##  3 정치교체  
##  4 하겠습니다
##  5 시대교체  
##  6 하겠습니다
##  7 불비불명  
##  8 이라는    
##  9 고사가    
## 10 있습니다  
## # ... with 2,015 more rows
```
…
---

#### 단어 빈도 구하기 - `count()`

```r
word_space <- word_space %>%
 count(word, sort = T)

word_space
```

```
## # A tibble: 1,440 x 2
##    word             n
##    <chr>        <int>
##  1 합니다          27
##  2 수              16
##  3 있습니다        13
##  4 저는            13
##  5 등              12
##  6 있는            12
##  7 함께            12
##  8 만들겠습니다    11
##  9 일자리          10
## 10 국민의           9
## # ... with 1,430 more rows
```
…
---
##### 두 글자 이상만 남기기

```r
word_space <- word_space %>%
 filter(str_count(word) > 1)

word_space
```

```
## # A tibble: 1,384 x 2
##    word             n
##    <chr>        <int>
##  1 합니다          27
##  2 있습니다        13
##  3 저는            13
##  4 있는            12
##  5 함께            12
##  6 만들겠습니다    11
##  7 일자리          10
##  8 국민의           9
##  9 우리             9
## 10 우리나라         9
## # ... with 1,374 more rows
```
…
