Do it! 쉽게 배우는 R 텍스트 마이닝 - 03 비교 분석: 무엇이 다를까?
…
<svg viewBox="0 0 576 512" xmlns="http://www.w3.org/2000/svg" style="height:1em;position:relative;display:inline-block;top:.1em;fill:#FF7333;">  [ comment ]  <path d="M569.517 440.013C587.975 472.007 564.806 512 527.94 512H48.054c-36.937 0-59.999-40.055-41.577-71.987L246.423 23.985c18.467-32.009 64.72-31.951 83.154 0l239.94 416.028zM288 354c-25.405 0-46 20.595-46 46s20.595 46 46 46 46-20.595 46-46-20.595-46-46-46zm-43.673-165.346l7.418 136c.347 6.364 5.609 11.346 11.982 11.346h48.546c6.373 0 11.635-4.982 11.982-11.346l7.418-136c.375-6.874-5.098-12.654-11.982-12.654h-63.383c-6.884 0-12.356 5.78-11.981 12.654z"></path></svg> `bind_speeches`는 tibble 구조이므로 `mutate()` 활용

---

```r
speeches
```

```
## # A tibble: 213 x 2
##    president value                                                    
##    <chr>     <chr>                                                    
##  1 moon      "정권교체 하겠습니다"                                    
##  2 moon      "정치교체 하겠습니다"                                    
##  3 moon      "시대교체 하겠습니다"                                    
##  4 moon      ""                                                       
##  5 moon      "불비불명 이라는 고사가 있습니다 남쪽 언덕 나뭇가지에 앉아 년 동안 날지도 울지도 않는 새 그러나 ~
##  6 moon      ""                                                       
##  7 moon      "그 동안 정치와 거리를 둬 왔습니다 그러나 암울한 시대가 저를 정치로 불러냈습니다 더 이상 남쪽 나~
##  8 moon      ""                                                       
##  9 moon      ""                                                       
## 10 moon      "우리나라 대통령 이 되겠습니다"                          
## # ... with 203 more rows
```
…
```r
# 토큰화
library(tidytext)
library(KoNLP)

speeches <- speeches %>%
  unnest_tokens(input = value,
                output = word,
                token = extractNoun)

speeches
```

```
## # A tibble: 2,997 x 2
##    president word      
##    <chr>     <chr>     
##  1 moon      "정권교체"
##  2 moon      "하겠습니"
##  3 moon      "정치"    
##  4 moon      "교체"    
##  5 moon      "하겠습니"
##  6 moon      "시대"    
##  7 moon      "교체"    
##  8 moon      "하겠습니"
##  9 moon      ""        
## 10 moon      "불비불명"
## # ... with 2,987 more rows
```
…
```r
df <- tibble(x = c(1:100))
```

<br-back-20>

.pull-left[

```r
df
```

```
## # A tibble: 100 x 1
##        x
##    <int>
##  1     1
##  2     2
##  3     3
##  4     4
##  5     5
##  6     6
##  7     7
##  8     8
##  9     9
## 10    10
## # ... with 90 more rows
```
…
---

##### 연설문 단어 빈도를 Wide form으로 변환하기

```r
frequency_wide <- frequency %>%
  pivot_wider(names_from = president,
              values_from = n,
              values_fill = list(n = 0))

frequency_wide
```

```
## # A tibble: 955 x 3
##    word      moon  park
##    <chr>    <int> <int>
##  1 가동         1     0
##  2 가사         1     0
##  3 가슴         2     0
##  4 가족         1     1
##  5 가족구조     1     0
##  6 가지         4     0
##  7 가치         3     1
##  8 각종         1     0
##  9 감당         1     0
## 10 강력         3     0
## # ... with 945 more rows
```
…
##### 1. 단어의 비중을 나타낸 변수 추가하기

- 각 단어가 두 연설문에서 차지하는 비중을 나타낸 변수 추가
- 연설문별로 '각 단어의 빈도'를 '모든 단어 빈도의 합'으로 나눔

```r
frequency_wide <- frequency_wide %>% 
  mutate(ratio_moon = ((moon)/(sum(moon))),  # moon 에서 단어의 비중
         ratio_park = ((park)/(sum(park))))  # park 에서 단어의 비중

frequency_wide
```

```
## # A tibble: 955 x 5
##    word      moon  park ratio_moon ratio_park
##    <chr>    <int> <int>      <dbl>      <dbl>
##  1 가동         1     0   0.000749    0      
##  2 가사         1     0   0.000749    0      
##  3 가슴         2     0   0.00150     0      
##  4 가족         1     1   0.000749    0.00117
##  5 가족구조     1     0   0.000749    0      
##  6 가지         4     0   0.00299     0      
##  7 가치         3     1   0.00225     0.00117
##  8 각종         1     0   0.000749    0      
##  9 감당         1     0   0.000749    0      
## 10 강력         3     0   0.00225     0      
## # ... with 945 more rows
```
…
##### 어떤 단어가 한 연설문에 전혀 사용되지 않으면
- 빈도 0, 오즈비 0. 단어 비중 비교할 수 없음
- 빈도가 0보다 큰 값이 되도록 모든 값에 `+1`

```r
frequency_wide <- frequency_wide %>%
  mutate(ratio_moon  = ((moon + 1)/(sum(moon + 1))),  # moon에서 단어의 비중
         ratio_park  = ((park + 1)/(sum(park + 1))))  # park에서 단어의 비중

frequency_wide
```

```
## # A tibble: 955 x 5
##    word      moon  park ratio_moon ratio_park
##    <chr>    <int> <int>      <dbl>      <dbl>
##  1 가동         1     0   0.000873   0.000552
##  2 가사         1     0   0.000873   0.000552
##  3 가슴         2     0   0.00131    0.000552
##  4 가족         1     1   0.000873   0.00110 
##  5 가족구조     1     0   0.000873   0.000552
##  6 가지         4     0   0.00218    0.000552
##  7 가치         3     1   0.00175    0.00110 
##  8 각종         1     0   0.000873   0.000552
##  9 감당         1     0   0.000873   0.000552
## 10 강력         3     0   0.00175    0.000552
## # ... with 945 more rows
```
…
---

- 단어가 어떤 텍스트에서 상대적으로 더 많이 사용됐는지 알 수 있음
  - **`"moon"`에서 상대적인 비중 클수록 1보다 큰 값**
  - `"park"`에서 상대적인 비중 클수록 1보다 작은 값
  - 두 연설문에서 단어 비중 같으면 1

```r
frequency_wide %>%
  arrange(-odds_ratio)
```

```
## # A tibble: 955 x 6
##    word      moon  park ratio_moon ratio_park odds_ratio
##    <chr>    <int> <int>      <dbl>      <dbl>      <dbl>
##  1 복지국가     8     0    0.00393   0.000552       7.12
##  2 세상         6     0    0.00306   0.000552       5.54
##  3 여성         6     0    0.00306   0.000552       5.54
##  4 정의         6     0    0.00306   0.000552       5.54
##  5 강자         5     0    0.00262   0.000552       4.75
##  6 공평         5     0    0.00262   0.000552       4.75
##  7 대통령의     5     0    0.00262   0.000552       4.75
##  8 보통         5     0    0.00262   0.000552       4.75
##  9 상생         5     0    0.00262   0.000552       4.75
## 10 지방         5     0    0.00262   0.000552       4.75
## # ... with 945 more rows
```

---

- 단어가 어떤 텍스트에서 상대적으로 더 많이 사용됐는지 알 수 있음
  - `"moon"`에서 상대적인 비중 클수록 1보다 큰 값
  - **`"park"`에서 상대적인 비중 클수록 1보다 작은 값**
  - 두 연설문에서 단어 비중 같으면 1

```r
frequency_wide %>%
* arrange(odds_ratio)
```

```
## # A tibble: 955 x 6
##    word      moon  park ratio_moon ratio_park odds_ratio
##    <chr>    <int> <int>      <dbl>      <dbl>      <dbl>
##  1 박근혜       0     8   0.000436    0.00496     0.0879
##  2 여러분       2    20   0.00131     0.0116      0.113 
##  3 행복         3    23   0.00175     0.0132      0.132 
##  4 실천         0     5   0.000436    0.00331     0.132 
##  5 정보         0     5   0.000436    0.00331     0.132 
##  6 투명         0     5   0.000436    0.00331     0.132 
##  7 과제         0     4   0.000436    0.00276     0.158 
##  8 국정운영     0     4   0.000436    0.00276     0.158 
##  9 시작         0     4   0.000436    0.00276     0.158 
## 10 지식         0     4   0.000436    0.00276     0.158 
## # ... with 945 more rows
```
…
#### 3. 오즈비 간단히 구하기

```r
frequency_wide <- frequency_wide %>%
  mutate(odds_ratio = ((moon + 1)/(sum(moon + 1)))/
                      ((park + 1)/(sum(park + 1))))
```

```r
frequency_wide %>%
  arrange(odds_ratio)
```

```
## # A tibble: 955 x 6
##    word      moon  park ratio_moon ratio_park odds_ratio
##    <chr>    <int> <int>      <dbl>      <dbl>      <dbl>
##  1 박근혜       0     8   0.000436    0.00496     0.0879
##  2 여러분       2    20   0.00131     0.0116      0.113 
##  3 행복         3    23   0.00175     0.0132      0.132 
##  4 실천         0     5   0.000436    0.00331     0.132 
##  5 정보         0     5   0.000436    0.00331     0.132 
##  6 투명         0     5   0.000436    0.00331     0.132 
##  7 과제         0     4   0.000436    0.00276     0.158 
##  8 국정운영     0     4   0.000436    0.00276     0.158 
##  9 시작         0     4   0.000436    0.00276     0.158 
## 10 지식         0     4   0.000436    0.00276     0.158 
## # ... with 945 more rows
```
…
