Do it! 쉽게 배우는 R 텍스트 마이닝 - 03 비교 분석: 무엇이 다를까?
…
```r
speeches <- raw_speeches %>%
  mutate(value = str_replace_all(value, "[^가-힣]", " "),
         value = str_squish(value))

speeches <- speeches %>%
  unnest_tokens(input = value,
                output = word,
                token = extractNoun)

speeches
```

```
## # A tibble: 4,121 x 2
##    president word  
##    <chr>     <chr> 
##  1 문재인    국민  
##  2 문재인    말씀  
##  3 문재인    존경  
##  4 문재인    사랑  
##  5 문재인    하    
##  6 문재인    국민  
##  7 문재인    여러분
##  8 문재인    감사  
##  9 문재인    국민  
## 10 문재인    여러분
## # ... with 4,111 more rows
```
…
```r
speeches <- raw_speeches %>%
  mutate(value = str_replace_all(value, "[^가-힣]", " "),
         value = str_squish(value))

speeches <- speeches %>%
  unnest_tokens(input = value,
                output = word,
                token = extractNoun)

speeches
```

```
## # A tibble: 4,121 x 2
##    president word  
##    <chr>     <chr> 
##  1 문재인    국민  
##  2 문재인    말씀  
##  3 문재인    존경  
##  4 문재인    사랑  
##  5 문재인    하    
##  6 문재인    국민  
##  7 문재인    여러분
##  8 문재인    감사  
##  9 문재인    국민  
## 10 문재인    여러분
## # ... with 4,111 more rows
```
…
```r
speeches <- raw_speeches %>%
  mutate(value = str_replace_all(value, "[^가-힣]", " "),
         value = str_squish(value))

speeches <- speeches %>%
  unnest_tokens(input = value,
                output = word,
                token = extractNoun)

speeches
```

```
## # A tibble: 4,121 x 2
##    president word  
##    <chr>     <chr> 
##  1 문재인    국민  
##  2 문재인    말씀  
##  3 문재인    존경  
##  4 문재인    사랑  
##  5 문재인    하    
##  6 문재인    국민  
##  7 문재인    여러분
##  8 문재인    감사  
##  9 문재인    국민  
## 10 문재인    여러분
## # ... with 4,111 more rows
```
…
```r
speeches <- raw_speeches %>%
  mutate(value = str_replace_all(value, "[^가-힣]", " "),
         value = str_squish(value))

speeches <- speeches %>%
  unnest_tokens(input = value,
                output = word,
                token = extractNoun)

speeches
```

```
## # A tibble: 4,121 x 2
##    president word  
##    <chr>     <chr> 
##  1 문재인    국민  
##  2 문재인    말씀  
##  3 문재인    존경  
##  4 문재인    사랑  
##  5 문재인    하    
##  6 문재인    국민  
##  7 문재인    여러분
##  8 문재인    감사  
##  9 문재인    국민  
## 10 문재인    여러분
## # ... with 4,111 more rows
```
…
```r
speeches <- raw_speeches %>%
  mutate(value = str_replace_all(value, "[^가-힣]", " "),
         value = str_squish(value))

speeches <- speeches %>%
  unnest_tokens(input = value,
                output = word,
                token = extractNoun)

speeches
```

```
## # A tibble: 4,121 x 2
##    president word  
##    <chr>     <chr> 
##  1 문재인    국민  
##  2 문재인    말씀  
##  3 문재인    존경  
##  4 문재인    사랑  
##  5 문재인    하    
##  6 문재인    국민  
##  7 문재인    여러분
##  8 문재인    감사  
##  9 문재인    국민  
## 10 문재인    여러분
## # ... with 4,111 more rows
```
…
```r
speeches <- raw_speeches %>%
  mutate(value = str_replace_all(value, "[^가-힣]", " "),
         value = str_squish(value))

speeches <- speeches %>%
  unnest_tokens(input = value,
                output = word,
                token = extractNoun)

speeches
```

```
## # A tibble: 4,121 x 2
##    president word  
##    <chr>     <chr> 
##  1 문재인    국민  
##  2 문재인    말씀  
##  3 문재인    존경  
##  4 문재인    사랑  
##  5 문재인    하    
##  6 문재인    국민  
##  7 문재인    여러분
##  8 문재인    감사  
##  9 문재인    국민  
## 10 문재인    여러분
## # ... with 4,111 more rows
```
…
```r
speeches <- raw_speeches %>%
  mutate(value = str_replace_all(value, "[^가-힣]", " "),
         value = str_squish(value))

speeches <- speeches %>%
  unnest_tokens(input = value,
                output = word,
                token = extractNoun)

speeches
```

```
## # A tibble: 4,121 x 2
##    president word  
##    <chr>     <chr> 
##  1 문재인    국민  
##  2 문재인    말씀  
##  3 문재인    존경  
##  4 문재인    사랑  
##  5 문재인    하    
##  6 문재인    국민  
##  7 문재인    여러분
##  8 문재인    감사  
##  9 문재인    국민  
## 10 문재인    여러분
## # ... with 4,111 more rows
```
…
```r
speeches <- raw_speeches %>%
  mutate(value = str_replace_all(value, "[^가-힣]", " "),
         value = str_squish(value))

speeches <- speeches %>%
  unnest_tokens(input = value,
                output = word,
                token = extractNoun)

speeches
```

```
## # A tibble: 4,121 x 2
##    president word  
##    <chr>     <chr> 
##  1 문재인    국민  
##  2 문재인    말씀  
##  3 문재인    존경  
##  4 문재인    사랑  
##  5 문재인    하    
##  6 문재인    국민  
##  7 문재인    여러분
##  8 문재인    감사  
##  9 문재인    국민  
## 10 문재인    여러분
## # ... with 4,111 more rows
```
…
```r
speeches <- raw_speeches %>%
  mutate(value = str_replace_all(value, "[^가-힣]", " "),
         value = str_squish(value))

speeches <- speeches %>%
  unnest_tokens(input = value,
                output = word,
                token = extractNoun)

speeches
```

```
## # A tibble: 4,121 x 2
##    president word  
##    <chr>     <chr> 
##  1 문재인    국민  
##  2 문재인    말씀  
##  3 문재인    존경  
##  4 문재인    사랑  
##  5 문재인    하    
##  6 문재인    국민  
##  7 문재인    여러분
##  8 문재인    감사  
##  9 문재인    국민  
## 10 문재인    여러분
## # ... with 4,111 more rows
```
…
```r
speeches <- raw_speeches %>%
  mutate(value = str_replace_all(value, "[^가-힣]", " "),
         value = str_squish(value))

speeches <- speeches %>%
  unnest_tokens(input = value,
                output = word,
                token = extractNoun)

speeches
```

```
## # A tibble: 4,121 x 2
##    president word  
##    <chr>     <chr> 
##  1 문재인    국민  
##  2 문재인    말씀  
##  3 문재인    존경  
##  4 문재인    사랑  
##  5 문재인    하    
##  6 문재인    국민  
##  7 문재인    여러분
##  8 문재인    감사  
##  9 문재인    국민  
## 10 문재인    여러분
## # ... with 4,111 more rows
```
…
```r
speeches <- raw_speeches %>%
  mutate(value = str_replace_all(value, "[^가-힣]", " "),
         value = str_squish(value))

speeches <- speeches %>%
  unnest_tokens(input = value,
                output = word,
                token = extractNoun)

speeches
```

```
## # A tibble: 4,121 x 2
##    president word  
##    <chr>     <chr> 
##  1 문재인    국민  
##  2 문재인    말씀  
##  3 문재인    존경  
##  4 문재인    사랑  
##  5 문재인    하    
##  6 문재인    국민  
##  7 문재인    여러분
##  8 문재인    감사  
##  9 문재인    국민  
## 10 문재인    여러분
## # ... with 4,111 more rows
```
…
```r
speeches <- raw_speeches %>%
  mutate(value = str_replace_all(value, "[^가-힣]", " "),
         value = str_squish(value))

speeches <- speeches %>%
  unnest_tokens(input = value,
                output = word,
                token = extractNoun)

speeches
```

```
## # A tibble: 4,121 x 2
##    president word  
##    <chr>     <chr> 
##  1 문재인    국민  
##  2 문재인    말씀  
##  3 문재인    존경  
##  4 문재인    사랑  
##  5 문재인    하    
##  6 문재인    국민  
##  7 문재인    여러분
##  8 문재인    감사  
##  9 문재인    국민  
## 10 문재인    여러분
## # ... with 4,111 more rows
```
…
```r
speeches <- raw_speeches %>%
  mutate(value = str_replace_all(value, "[^가-힣]", " "),
         value = str_squish(value))

speeches <- speeches %>%
  unnest_tokens(input = value,
                output = word,
                token = extractNoun)

speeches
```

```
## # A tibble: 4,121 x 2
##    president word  
##    <chr>     <chr> 
##  1 문재인    국민  
##  2 문재인    말씀  
##  3 문재인    존경  
##  4 문재인    사랑  
##  5 문재인    하    
##  6 문재인    국민  
##  7 문재인    여러분
##  8 문재인    감사  
##  9 문재인    국민  
## 10 문재인    여러분
## # ... with 4,111 more rows
```
…
```r
speeches <- raw_speeches %>%
  mutate(value = str_replace_all(value, "[^가-힣]", " "),
         value = str_squish(value))

speeches <- speeches %>%
  unnest_tokens(input = value,
                output = word,
                token = extractNoun)

speeches
```

```
## # A tibble: 4,121 x 2
##    president word  
##    <chr>     <chr> 
##  1 문재인    국민  
##  2 문재인    말씀  
##  3 문재인    존경  
##  4 문재인    사랑  
##  5 문재인    하    
##  6 문재인    국민  
##  7 문재인    여러분
##  8 문재인    감사  
##  9 문재인    국민  
## 10 문재인    여러분
## # ... with 4,111 more rows
```
…
```r
speeches <- raw_speeches %>%
  mutate(value = str_replace_all(value, "[^가-힣]", " "),
         value = str_squish(value))

speeches <- speeches %>%
  unnest_tokens(input = value,
                output = word,
                token = extractNoun)

speeches
```

```
## # A tibble: 4,121 x 2
##    president word  
##    <chr>     <chr> 
##  1 문재인    국민  
##  2 문재인    말씀  
##  3 문재인    존경  
##  4 문재인    사랑  
##  5 문재인    하    
##  6 문재인    국민  
##  7 문재인    여러분
##  8 문재인    감사  
##  9 문재인    국민  
## 10 문재인    여러분
## # ... with 4,111 more rows
```
…
```r
speeches <- raw_speeches %>%
  mutate(value = str_replace_all(value, "[^가-힣]", " "),
         value = str_squish(value))

speeches <- speeches %>%
  unnest_tokens(input = value,
                output = word,
                token = extractNoun)

speeches
```

```
## # A tibble: 4,121 x 2
##    president word  
##    <chr>     <chr> 
##  1 문재인    국민  
##  2 문재인    말씀  
##  3 문재인    존경  
##  4 문재인    사랑  
##  5 문재인    하    
##  6 문재인    국민  
##  7 문재인    여러분
##  8 문재인    감사  
##  9 문재인    국민  
## 10 문재인    여러분
## # ... with 4,111 more rows
```
…
```r
speeches <- raw_speeches %>%
  mutate(value = str_replace_all(value, "[^가-힣]", " "),
         value = str_squish(value))

speeches <- speeches %>%
  unnest_tokens(input = value,
                output = word,
                token = extractNoun)

speeches
```

```
## # A tibble: 4,121 x 2
##    president word  
##    <chr>     <chr> 
##  1 문재인    국민  
##  2 문재인    말씀  
##  3 문재인    존경  
##  4 문재인    사랑  
##  5 문재인    하    
##  6 문재인    국민  
##  7 문재인    여러분
##  8 문재인    감사  
##  9 문재인    국민  
## 10 문재인    여러분
## # ... with 4,111 more rows
```
…
